{
        "name": "sink-greenplum-postgres",
        "config": {
                "connector.class": "io.confluent.connect.jdbc.JdbcSinkConnector",
                "tasks.max": "1",
                "topics.regex": "postgres\\.ehealth\\.\\w+",
                "connection.url": "jdbc:postgresql://greenplum-master:5432/test",
                "connection.user": "gpadmin",
                "connection.password": "gpadmin",
                "dialect.name": "PostgreSqlDatabaseDialect",
                "table.name.format": "${topic}",
                "auto.create": true,
                "auto.evolve": true,
                "insert.mode": "insert",
                "delete.enabled": true,
                "pk.mode": "record_key",
                "pk.fields": "id",
                "transforms": "route",
                "transforms.route.type": "org.apache.kafka.connect.transforms.RegexRouter",
                "transforms.route.regex": "postgres\\.ehealth\\.(\\w+)",
                "transforms.route.replacement": "raw_postgres_ehealth.$1"
        }
}
